<svg width="64" height="64" viewBox="0 0 64 64" fill="none" xmlns="http://www.w3.org/2000/svg">
<rect width="64" height="64" fill="#333541"/>
<path d="M32.3177 17.2086C44.3545 17.2086 51.9534 27.7291 54.5121 31.9388C51.9488 36.1558 44.3517 46.6689 32.3177 46.6689C20.2825 46.6689 12.6848 36.2095 10.1238 32.0172C12.6831 27.7833 20.2825 17.2086 32.3177 17.2086ZM32.3177 13C14.1059 13 5 32.0261 5 32.0261C5 32.0261 14.1059 50.8775 32.3177 50.8775C50.5294 50.8775 59.6353 31.9388 59.6353 31.9388C59.6353 31.9388 50.5294 13 32.3177 13Z" fill="white"/>
<path fill-rule="evenodd" clip-rule="evenodd" d="M32.318 30.707C31.5829 30.707 30.9861 31.2587 30.9861 31.9382C30.9861 32.6178 31.5829 33.1696 32.318 33.1696C33.0532 33.1696 33.6501 32.6178 33.6501 31.9382C33.6501 31.2587 33.0532 30.707 32.318 30.707ZM28.8549 31.9382C28.8549 30.1703 30.4054 28.7371 32.318 28.7371C34.2306 28.7371 35.7812 30.1703 35.7812 31.9382C35.7812 33.7062 34.2306 35.1395 32.318 35.1395C30.4054 35.1395 28.8549 33.7062 28.8549 31.9382ZM24.1981 36.1734C23.8359 35.5878 23.5482 34.9573 23.3458 34.2926L20.9696 34.1545C20.3197 34.1545 19.7974 33.6717 19.7974 33.0711V31.5686C21.5196 32.52 24.278 32.3215 26.821 30.9727C26.7571 31.2855 26.7237 31.6083 26.7237 31.9383C26.7237 34.7947 29.2279 37.1094 32.318 37.1094C35.4082 37.1094 37.9123 34.7947 37.9123 31.9383C37.9123 29.082 35.4081 26.7671 32.318 26.7671C31.8354 26.7671 31.367 26.8235 30.9202 26.9298C31.5497 25.5645 31.5636 24.1954 30.8127 23.1533C30.5612 22.8043 30.24 22.5143 29.8637 22.2834L29.9205 21.4482C29.9205 20.8472 30.4428 20.3645 31.0927 20.3645H33.5434C34.1932 20.3645 34.7155 20.8472 34.7155 21.4482L34.8642 23.6447C35.584 23.8318 36.266 24.0978 36.8999 24.4325L38.6474 22.955C39.1059 22.5315 39.8465 22.5315 40.3047 22.955L42.0363 24.5556C42.4943 24.9794 42.4943 25.6638 42.0363 26.0875L40.438 27.7028C40.8 28.2889 41.0877 28.9193 41.29 29.5843L43.6665 29.722C44.3162 29.722 44.8386 30.2048 44.8386 30.8057V33.0711C44.8386 33.6717 44.3162 34.1545 43.6665 34.1545L41.29 34.2926C41.0877 34.9572 40.8 35.5877 40.438 36.1734L42.0363 37.789C42.4943 38.2129 42.4943 38.8974 42.0363 39.3209L40.3047 40.9215C39.8464 41.3449 39.1059 41.3449 38.6474 40.9215L36.8999 39.4441C36.266 39.7788 35.584 40.0448 34.8642 40.2317L34.7155 42.4285C34.7155 43.0291 34.1932 43.5119 33.5434 43.5119H31.0927C30.4428 43.5119 29.9205 43.0291 29.9205 42.4285L29.7711 40.2317C29.052 40.0448 28.3699 39.7788 27.7362 39.4441L25.9885 40.9215C25.5301 41.3449 24.7897 41.3449 24.3313 40.9215L22.5997 39.3209C22.1418 38.8973 22.1418 38.2128 22.5997 37.789L24.1981 36.1734Z" fill="#FF5E0C"/>
</svg>
